# Blender MTL File: 'None'
# Material Count: 1

newmtl _10447_Pine_Tree_v1_L310447_Pine_Tree_v1.001
Ns 9.803922
Ka 0.588000 0.588000 0.588000
Kd 0.588000 0.588000 0.588000
Ks 0.000000 0.000000 0.000000
Ke 0.000000 0.000000 0.000000
Ni 1.500000
d 1.000000
illum 2
map_Kd 10447_Pine_Tree_v1_Diffuse.jpg
map_Ka 10447_Pine_Tree_v1_Diffuse.jpg
