# Blender MTL File: 'None'
# Material Count: 1

newmtl 11543_BundleOfStraw_V2.001
Ns 15.686275
Ka 1.000000 1.000000 1.000000
Kd 1.000000 1.000000 1.000000
Ks 0.089800 0.089800 0.083900
Ke 0.000000 0.000000 0.000000
Ni 1.500000
d 1.000000
illum 2
map_Kd 11543_BundleOfStraw_V2_Diffuse3.jpg
map_Bump 11543_BundleOfStraw_V2_Bump2.jpg
map_Ka 11543_BundleOfStraw_V2_Diffuse3.jpg
