# Blender MTL File: 'None'
# Material Count: 9

newmtl Material__13
Ns 25.490196
Ka 0.139867 0.139867 0.139867
Kd 0.000000 0.000000 0.000000
Ks 0.810000 0.810000 0.810000
Ke 0.000000 0.000000 0.000000
Ni 1.500000
d 1.000000
illum 2

newmtl Material__14
Ns 31.372549
Ka 0.135100 0.135100 0.135100
Kd 0.113700 0.109800 0.000000
Ks 0.282700 0.297200 0.108100
Ke 0.000000 0.000000 0.000000
Ni 1.500000
d 1.000000
illum 2

newmtl Material__2
Ns 23.529412
Ka 0.103267 0.103267 0.103267
Kd 1.000000 0.964700 0.000000
Ks 0.540000 0.540000 0.540000
Ke 0.000000 0.000000 0.000000
Ni 1.500000
d 1.000000
illum 2
map_Kd blue.jpg
map_Bump blue.jpg
map_Ka blue.jpg
refl SUNSET.JPG

newmtl Material__21
Ns 23.529412
Ka 0.103267 0.103267 0.103267
Kd 1.000000 0.964700 0.000000
Ks 0.738000 0.738000 0.738000
Ke 0.000000 0.000000 0.000000
Ni 1.500000
d 1.000000
illum 2
map_Kd blue.jpg
map_Bump blue.jpg
map_Ka blue.jpg
refl SUNSET.JPG

newmtl Material__3
Ns 23.529412
Ka 0.111567 0.111567 0.111567
Kd 0.000000 0.000000 0.000000
Ks 0.114300 0.101400 0.368600
Ke 0.000000 0.000000 0.000000
Ni 1.500000
d 1.000000
illum 2
map_Bump opticus.jpg

newmtl Material__7
Ns 23.529412
Ka 0.134667 0.134667 0.134667
Kd 0.651000 0.302000 0.737300
Ks 0.045000 0.045000 0.045000
Ke 0.000000 0.000000 0.000000
Ni 1.500000
d 1.000000
illum 2

newmtl Material__9
Ns 23.529412
Ka 0.153400 0.153400 0.153400
Kd 0.639200 0.549000 0.192200
Ks 0.045000 0.045000 0.045000
Ke 0.000000 0.000000 0.000000
Ni 1.500000
d 1.000000
illum 2
map_Bump opticus.jpg

newmtl wire_000255000
Ns 31.372549
Ka 0.333333 0.333333 0.333333
Kd 0.000000 1.000000 0.000000
Ks 0.350000 0.350000 0.350000
Ke 0.000000 0.000000 0.000000
Ni 1.000000
d 1.000000
illum 2

newmtl wire_252252252
Ns 31.372549
Ka 0.988200 0.988200 0.988200
Kd 0.988200 0.988200 0.988200
Ks 0.350000 0.350000 0.350000
Ke 0.000000 0.000000 0.000000
Ni 1.000000
d 1.000000
illum 2
