#-----------------------------------------------------------
# Vivado v2019.1 (64-bit)
# SW Build 2552052 on Fri May 24 14:49:42 MDT 2019
# IP Build 2548770 on Fri May 24 18:01:18 MDT 2019
# Start of session at: Fri Jan 10 08:49:48 2020
# Process ID: 9844
# Current directory: C:/Users/murea/OneDrive/Desktop/ProiectSSCBasys3/project_1
# Command line: vivado.exe -gui_launcher_event rodinguilauncherevent11616 C:\Users\murea\OneDrive\Desktop\ProiectSSCBasys3\project_1\project_1.xpr
# Log file: C:/Users/murea/OneDrive/Desktop/ProiectSSCBasys3/project_1/vivado.log
# Journal file: C:/Users/murea/OneDrive/Desktop/ProiectSSCBasys3/project_1\vivado.jou
#-----------------------------------------------------------
start_gui
open_project C:/Users/murea/OneDrive/Desktop/ProiectSSCBasys3/project_1/project_1.xpr
Scanning sources...
Finished scanning sources
INFO: [IP_Flow 19-234] Refreshing IP repositories
INFO: [IP_Flow 19-1704] No user IP repositories specified
INFO: [IP_Flow 19-2313] Loaded Vivado IP repository 'D:/xilinx/Vivado/2019.1/data/ip'.
open_project: Time (s): cpu = 00:00:22 ; elapsed = 00:00:23 . Memory (MB): peak = 730.324 ; gain = 68.043
update_compile_order -fileset sources_1
reset_run synth_1
launch_runs impl_1 -to_step write_bitstream -jobs 4
[Fri Jan 10 08:51:53 2020] Launched synth_1...
Run output will be captured here: C:/Users/murea/OneDrive/Desktop/ProiectSSCBasys3/project_1/project_1.runs/synth_1/runme.log
[Fri Jan 10 08:51:53 2020] Launched impl_1...
Run output will be captured here: C:/Users/murea/OneDrive/Desktop/ProiectSSCBasys3/project_1/project_1.runs/impl_1/runme.log
open_hw
connect_hw_server
INFO: [Labtools 27-2285] Connecting to hw_server url TCP:localhost:3121
INFO: [Labtools 27-2222] Launching hw_server...
INFO: [Labtools 27-2221] Launch Output:

****** Xilinx hw_server v2019.1
  **** Build date : May 24 2019 at 15:13:31
    ** Copyright 1986-2019 Xilinx, Inc. All Rights Reserved.


connect_hw_server: Time (s): cpu = 00:00:01 ; elapsed = 00:00:07 . Memory (MB): peak = 826.734 ; gain = 14.566
open_hw_target
INFO: [Labtoolstcl 44-466] Opening hw_target localhost:3121/xilinx_tcf/Digilent/210183AB44E4A
open_hw_target: Time (s): cpu = 00:00:05 ; elapsed = 00:00:05 . Memory (MB): peak = 1928.672 ; gain = 1101.938
set_property PROGRAM.FILE {C:/Users/murea/OneDrive/Desktop/ProiectSSCBasys3/project_1/project_1.runs/impl_1/Main.bit} [get_hw_devices xc7a35t_0]
current_hw_device [get_hw_devices xc7a35t_0]
refresh_hw_device -update_hw_probes false [lindex [get_hw_devices xc7a35t_0] 0]
INFO: [Labtools 27-1434] Device xc7a35t (JTAG device index = 0) is programmed with a design that has no supported debug core(s) in it.
set_property PROBES.FILE {} [get_hw_devices xc7a35t_0]
set_property FULL_PROBES.FILE {} [get_hw_devices xc7a35t_0]
set_property PROGRAM.FILE {C:/Users/murea/OneDrive/Desktop/ProiectSSCBasys3/project_1/project_1.runs/impl_1/Main.bit} [get_hw_devices xc7a35t_0]
program_hw_devices [get_hw_devices xc7a35t_0]
INFO: [Labtools 27-3164] End of startup status: HIGH
refresh_hw_device [lindex [get_hw_devices xc7a35t_0] 0]
INFO: [Labtools 27-1434] Device xc7a35t (JTAG device index = 0) is programmed with a design that has no supported debug core(s) in it.
close_hw
update_compile_order -fileset sources_1
reset_run synth_1
launch_runs impl_1 -to_step write_bitstream -jobs 4
[Fri Jan 10 09:00:30 2020] Launched synth_1...
Run output will be captured here: C:/Users/murea/OneDrive/Desktop/ProiectSSCBasys3/project_1/project_1.runs/synth_1/runme.log
[Fri Jan 10 09:00:30 2020] Launched impl_1...
Run output will be captured here: C:/Users/murea/OneDrive/Desktop/ProiectSSCBasys3/project_1/project_1.runs/impl_1/runme.log
open_hw
connect_hw_server
INFO: [Labtools 27-2285] Connecting to hw_server url TCP:localhost:3121
INFO: [Labtools 27-2222] Launching hw_server...
INFO: [Labtools 27-2221] Launch Output:

****** Xilinx hw_server v2019.1
  **** Build date : May 24 2019 at 15:13:31
    ** Copyright 1986-2019 Xilinx, Inc. All Rights Reserved.


open_hw_target
INFO: [Labtoolstcl 44-466] Opening hw_target localhost:3121/xilinx_tcf/Digilent/210183AB44E4A
set_property PROGRAM.FILE {C:/Users/murea/OneDrive/Desktop/ProiectSSCBasys3/project_1/project_1.runs/impl_1/Main.bit} [get_hw_devices xc7a35t_0]
current_hw_device [get_hw_devices xc7a35t_0]
refresh_hw_device -update_hw_probes false [lindex [get_hw_devices xc7a35t_0] 0]
INFO: [Labtools 27-1434] Device xc7a35t (JTAG device index = 0) is programmed with a design that has no supported debug core(s) in it.
set_property PROBES.FILE {} [get_hw_devices xc7a35t_0]
set_property FULL_PROBES.FILE {} [get_hw_devices xc7a35t_0]
set_property PROGRAM.FILE {C:/Users/murea/OneDrive/Desktop/ProiectSSCBasys3/project_1/project_1.runs/impl_1/Main.bit} [get_hw_devices xc7a35t_0]
program_hw_devices [get_hw_devices xc7a35t_0]
INFO: [Labtools 27-3164] End of startup status: HIGH
refresh_hw_device [lindex [get_hw_devices xc7a35t_0] 0]
INFO: [Labtools 27-1434] Device xc7a35t (JTAG device index = 0) is programmed with a design that has no supported debug core(s) in it.
close_hw
reset_run synth_1
launch_runs impl_1 -to_step write_bitstream -jobs 4
[Fri Jan 10 09:05:36 2020] Launched synth_1...
Run output will be captured here: C:/Users/murea/OneDrive/Desktop/ProiectSSCBasys3/project_1/project_1.runs/synth_1/runme.log
[Fri Jan 10 09:05:37 2020] Launched impl_1...
Run output will be captured here: C:/Users/murea/OneDrive/Desktop/ProiectSSCBasys3/project_1/project_1.runs/impl_1/runme.log
open_hw
connect_hw_server
INFO: [Labtools 27-2285] Connecting to hw_server url TCP:localhost:3121
INFO: [Labtools 27-2222] Launching hw_server...
INFO: [Labtools 27-2221] Launch Output:

****** Xilinx hw_server v2019.1
  **** Build date : May 24 2019 at 15:13:31
    ** Copyright 1986-2019 Xilinx, Inc. All Rights Reserved.


open_hw_target
INFO: [Labtoolstcl 44-466] Opening hw_target localhost:3121/xilinx_tcf/Digilent/210183AB44E4A
set_property PROGRAM.FILE {C:/Users/murea/OneDrive/Desktop/ProiectSSCBasys3/project_1/project_1.runs/impl_1/Main.bit} [get_hw_devices xc7a35t_0]
current_hw_device [get_hw_devices xc7a35t_0]
refresh_hw_device -update_hw_probes false [lindex [get_hw_devices xc7a35t_0] 0]
INFO: [Labtools 27-1434] Device xc7a35t (JTAG device index = 0) is programmed with a design that has no supported debug core(s) in it.
set_property PROBES.FILE {} [get_hw_devices xc7a35t_0]
set_property FULL_PROBES.FILE {} [get_hw_devices xc7a35t_0]
set_property PROGRAM.FILE {C:/Users/murea/OneDrive/Desktop/ProiectSSCBasys3/project_1/project_1.runs/impl_1/Main.bit} [get_hw_devices xc7a35t_0]
program_hw_devices [get_hw_devices xc7a35t_0]
INFO: [Labtools 27-3164] End of startup status: HIGH
refresh_hw_device [lindex [get_hw_devices xc7a35t_0] 0]
INFO: [Labtools 27-1434] Device xc7a35t (JTAG device index = 0) is programmed with a design that has no supported debug core(s) in it.
close_hw
reset_run synth_1
launch_runs impl_1 -to_step write_bitstream -jobs 4
[Fri Jan 10 09:12:52 2020] Launched synth_1...
Run output will be captured here: C:/Users/murea/OneDrive/Desktop/ProiectSSCBasys3/project_1/project_1.runs/synth_1/runme.log
[Fri Jan 10 09:12:52 2020] Launched impl_1...
Run output will be captured here: C:/Users/murea/OneDrive/Desktop/ProiectSSCBasys3/project_1/project_1.runs/impl_1/runme.log
open_hw
connect_hw_server
INFO: [Labtools 27-2285] Connecting to hw_server url TCP:localhost:3121
INFO: [Labtools 27-2222] Launching hw_server...
INFO: [Labtools 27-2221] Launch Output:

****** Xilinx hw_server v2019.1
  **** Build date : May 24 2019 at 15:13:31
    ** Copyright 1986-2019 Xilinx, Inc. All Rights Reserved.


open_hw_target
INFO: [Labtoolstcl 44-466] Opening hw_target localhost:3121/xilinx_tcf/Digilent/210183AB44E4A
set_property PROGRAM.FILE {C:/Users/murea/OneDrive/Desktop/ProiectSSCBasys3/project_1/project_1.runs/impl_1/Main.bit} [get_hw_devices xc7a35t_0]
current_hw_device [get_hw_devices xc7a35t_0]
refresh_hw_device -update_hw_probes false [lindex [get_hw_devices xc7a35t_0] 0]
INFO: [Labtools 27-1434] Device xc7a35t (JTAG device index = 0) is programmed with a design that has no supported debug core(s) in it.
set_property PROBES.FILE {} [get_hw_devices xc7a35t_0]
set_property FULL_PROBES.FILE {} [get_hw_devices xc7a35t_0]
set_property PROGRAM.FILE {C:/Users/murea/OneDrive/Desktop/ProiectSSCBasys3/project_1/project_1.runs/impl_1/Main.bit} [get_hw_devices xc7a35t_0]
program_hw_devices [get_hw_devices xc7a35t_0]
INFO: [Labtools 27-3164] End of startup status: HIGH
refresh_hw_device [lindex [get_hw_devices xc7a35t_0] 0]
INFO: [Labtools 27-1434] Device xc7a35t (JTAG device index = 0) is programmed with a design that has no supported debug core(s) in it.
ERROR: [Labtoolstcl 44-513] HW Target shutdown. Closing target: localhost:3121/xilinx_tcf/Digilent/210183AB44E4A
INFO: [Labtoolstcl 44-466] Opening hw_target localhost:3121/xilinx_tcf/Digilent/210183AB44E4A
INFO: [Labtools 27-1434] Device xc7a35t (JTAG device index = 0) is programmed with a design that has no supported debug core(s) in it.
WARNING: [Labtoolstcl 44-129] No matching hw_ila_data was found.
ERROR: [Labtoolstcl 44-513] HW Target shutdown. Closing target: localhost:3121/xilinx_tcf/Digilent/210183AB44E4A
update_compile_order -fileset sources_1
close_hw
file mkdir C:/Users/murea/OneDrive/Desktop/ProiectSSCBasys3/project_1/project_1.srcs/sources_1/new
close [ open C:/Users/murea/OneDrive/Desktop/ProiectSSCBasys3/project_1/project_1.srcs/sources_1/new/Division.vhd w ]
add_files C:/Users/murea/OneDrive/Desktop/ProiectSSCBasys3/project_1/project_1.srcs/sources_1/new/Division.vhd
update_compile_order -fileset sources_1
set_property top alu_8bit [current_fileset]
update_compile_order -fileset sources_1
update_compile_order -fileset sources_1
update_compile_order -fileset sources_1
update_compile_order -fileset sources_1
close [ open C:/Users/murea/OneDrive/Desktop/ProiectSSCBasys3/project_1/project_1.srcs/sources_1/new/TestALU.vhd w ]
add_files C:/Users/murea/OneDrive/Desktop/ProiectSSCBasys3/project_1/project_1.srcs/sources_1/new/TestALU.vhd
update_compile_order -fileset sources_1
set_property top TestALU [current_fileset]
update_compile_order -fileset sources_1
reset_run synth_1
launch_runs impl_1 -to_step write_bitstream -jobs 4
[Fri Jan 10 12:24:20 2020] Launched synth_1...
Run output will be captured here: C:/Users/murea/OneDrive/Desktop/ProiectSSCBasys3/project_1/project_1.runs/synth_1/runme.log
[Fri Jan 10 12:24:20 2020] Launched impl_1...
Run output will be captured here: C:/Users/murea/OneDrive/Desktop/ProiectSSCBasys3/project_1/project_1.runs/impl_1/runme.log
reset_run synth_1
launch_runs impl_1 -to_step write_bitstream -jobs 4
[Fri Jan 10 12:26:53 2020] Launched synth_1...
Run output will be captured here: C:/Users/murea/OneDrive/Desktop/ProiectSSCBasys3/project_1/project_1.runs/synth_1/runme.log
[Fri Jan 10 12:26:53 2020] Launched impl_1...
Run output will be captured here: C:/Users/murea/OneDrive/Desktop/ProiectSSCBasys3/project_1/project_1.runs/impl_1/runme.log
reset_run synth_1
launch_runs impl_1 -to_step write_bitstream -jobs 4
[Fri Jan 10 12:28:41 2020] Launched synth_1...
Run output will be captured here: C:/Users/murea/OneDrive/Desktop/ProiectSSCBasys3/project_1/project_1.runs/synth_1/runme.log
[Fri Jan 10 12:28:41 2020] Launched impl_1...
Run output will be captured here: C:/Users/murea/OneDrive/Desktop/ProiectSSCBasys3/project_1/project_1.runs/impl_1/runme.log
open_hw
connect_hw_server
INFO: [Labtools 27-2285] Connecting to hw_server url TCP:localhost:3121
INFO: [Labtools 27-2222] Launching hw_server...
INFO: [Labtools 27-2221] Launch Output:

****** Xilinx hw_server v2019.1
  **** Build date : May 24 2019 at 15:13:31
    ** Copyright 1986-2019 Xilinx, Inc. All Rights Reserved.


connect_hw_server: Time (s): cpu = 00:00:00 ; elapsed = 00:00:05 . Memory (MB): peak = 2016.152 ; gain = 0.000
open_hw_target
INFO: [Labtoolstcl 44-466] Opening hw_target localhost:3121/xilinx_tcf/Digilent/210183AB44E4A
set_property PROGRAM.FILE {C:/Users/murea/OneDrive/Desktop/ProiectSSCBasys3/project_1/project_1.runs/impl_1/TestALU.bit} [get_hw_devices xc7a35t_0]
current_hw_device [get_hw_devices xc7a35t_0]
refresh_hw_device -update_hw_probes false [lindex [get_hw_devices xc7a35t_0] 0]
INFO: [Labtools 27-1434] Device xc7a35t (JTAG device index = 0) is programmed with a design that has no supported debug core(s) in it.
set_property PROBES.FILE {} [get_hw_devices xc7a35t_0]
set_property FULL_PROBES.FILE {} [get_hw_devices xc7a35t_0]
set_property PROGRAM.FILE {C:/Users/murea/OneDrive/Desktop/ProiectSSCBasys3/project_1/project_1.runs/impl_1/TestALU.bit} [get_hw_devices xc7a35t_0]
program_hw_devices [get_hw_devices xc7a35t_0]
INFO: [Labtools 27-3164] End of startup status: HIGH
refresh_hw_device [lindex [get_hw_devices xc7a35t_0] 0]
INFO: [Labtools 27-1434] Device xc7a35t (JTAG device index = 0) is programmed with a design that has no supported debug core(s) in it.
ERROR: [Labtoolstcl 44-513] HW Target shutdown. Closing target: localhost:3121/xilinx_tcf/Digilent/210183AB44E4A
INFO: [Labtoolstcl 44-466] Opening hw_target localhost:3121/xilinx_tcf/Digilent/210183AB44E4A
INFO: [Labtools 27-1434] Device xc7a35t (JTAG device index = 0) is programmed with a design that has no supported debug core(s) in it.
WARNING: [Labtoolstcl 44-129] No matching hw_ila_data was found.
set_property PROBES.FILE {} [get_hw_devices xc7a35t_0]
set_property FULL_PROBES.FILE {} [get_hw_devices xc7a35t_0]
set_property PROGRAM.FILE {C:/Users/murea/OneDrive/Desktop/ProiectSSCBasys3/project_1/project_1.runs/impl_1/TestALU.bit} [get_hw_devices xc7a35t_0]
program_hw_devices [get_hw_devices xc7a35t_0]
INFO: [Labtools 27-3164] End of startup status: HIGH
refresh_hw_device [lindex [get_hw_devices xc7a35t_0] 0]
INFO: [Labtools 27-1434] Device xc7a35t (JTAG device index = 0) is programmed with a design that has no supported debug core(s) in it.
close_hw
reset_run synth_1
launch_runs impl_1 -to_step write_bitstream -jobs 4
[Fri Jan 10 12:37:38 2020] Launched synth_1...
Run output will be captured here: C:/Users/murea/OneDrive/Desktop/ProiectSSCBasys3/project_1/project_1.runs/synth_1/runme.log
[Fri Jan 10 12:37:38 2020] Launched impl_1...
Run output will be captured here: C:/Users/murea/OneDrive/Desktop/ProiectSSCBasys3/project_1/project_1.runs/impl_1/runme.log
open_hw
connect_hw_server
INFO: [Labtools 27-2285] Connecting to hw_server url TCP:localhost:3121
INFO: [Labtools 27-2222] Launching hw_server...
INFO: [Labtools 27-2221] Launch Output:

****** Xilinx hw_server v2019.1
  **** Build date : May 24 2019 at 15:13:31
    ** Copyright 1986-2019 Xilinx, Inc. All Rights Reserved.


open_hw_target
INFO: [Labtoolstcl 44-466] Opening hw_target localhost:3121/xilinx_tcf/Digilent/210183AB44E4A
set_property PROGRAM.FILE {C:/Users/murea/OneDrive/Desktop/ProiectSSCBasys3/project_1/project_1.runs/impl_1/TestALU.bit} [get_hw_devices xc7a35t_0]
current_hw_device [get_hw_devices xc7a35t_0]
refresh_hw_device -update_hw_probes false [lindex [get_hw_devices xc7a35t_0] 0]
INFO: [Labtools 27-1434] Device xc7a35t (JTAG device index = 0) is programmed with a design that has no supported debug core(s) in it.
set_property PROBES.FILE {} [get_hw_devices xc7a35t_0]
set_property FULL_PROBES.FILE {} [get_hw_devices xc7a35t_0]
set_property PROGRAM.FILE {C:/Users/murea/OneDrive/Desktop/ProiectSSCBasys3/project_1/project_1.runs/impl_1/TestALU.bit} [get_hw_devices xc7a35t_0]
program_hw_devices [get_hw_devices xc7a35t_0]
INFO: [Labtools 27-3164] End of startup status: HIGH
refresh_hw_device [lindex [get_hw_devices xc7a35t_0] 0]
INFO: [Labtools 27-1434] Device xc7a35t (JTAG device index = 0) is programmed with a design that has no supported debug core(s) in it.
close_hw
reset_run synth_1
launch_runs impl_1 -to_step write_bitstream -jobs 4
[Fri Jan 10 12:50:51 2020] Launched synth_1...
Run output will be captured here: C:/Users/murea/OneDrive/Desktop/ProiectSSCBasys3/project_1/project_1.runs/synth_1/runme.log
[Fri Jan 10 12:50:51 2020] Launched impl_1...
Run output will be captured here: C:/Users/murea/OneDrive/Desktop/ProiectSSCBasys3/project_1/project_1.runs/impl_1/runme.log
open_hw
connect_hw_server
INFO: [Labtools 27-2285] Connecting to hw_server url TCP:localhost:3121
INFO: [Labtools 27-2222] Launching hw_server...
INFO: [Labtools 27-2221] Launch Output:

****** Xilinx hw_server v2019.1
  **** Build date : May 24 2019 at 15:13:31
    ** Copyright 1986-2019 Xilinx, Inc. All Rights Reserved.


open_hw_target
INFO: [Labtoolstcl 44-466] Opening hw_target localhost:3121/xilinx_tcf/Digilent/210183AB44E4A
set_property PROGRAM.FILE {C:/Users/murea/OneDrive/Desktop/ProiectSSCBasys3/project_1/project_1.runs/impl_1/TestALU.bit} [get_hw_devices xc7a35t_0]
current_hw_device [get_hw_devices xc7a35t_0]
refresh_hw_device -update_hw_probes false [lindex [get_hw_devices xc7a35t_0] 0]
INFO: [Labtools 27-1434] Device xc7a35t (JTAG device index = 0) is programmed with a design that has no supported debug core(s) in it.
set_property PROBES.FILE {} [get_hw_devices xc7a35t_0]
set_property FULL_PROBES.FILE {} [get_hw_devices xc7a35t_0]
set_property PROGRAM.FILE {C:/Users/murea/OneDrive/Desktop/ProiectSSCBasys3/project_1/project_1.runs/impl_1/TestALU.bit} [get_hw_devices xc7a35t_0]
program_hw_devices [get_hw_devices xc7a35t_0]
INFO: [Labtools 27-3164] End of startup status: HIGH
refresh_hw_device [lindex [get_hw_devices xc7a35t_0] 0]
INFO: [Labtools 27-1434] Device xc7a35t (JTAG device index = 0) is programmed with a design that has no supported debug core(s) in it.
